{
  // "knowledge_engine_endpoint": "http://gaiasense-pie:8280/rest", // This one is configured in the environment variable KE_ENDPOINT
  "knowledge_base": {
    "id": "http://sense-web.neuropublic.gr:8585",
    "name": "GaiaSense Knowledge Base",
    "description": "Provides information about several parcels."
  },

  "plugin": {
    "class": "gaiasense_data_source.GaiaSenseDataSource",
    "args": ["http://sense-web.neuropublic.gr:8585"]
  },

  "authorization_enabled": true,
  
  "knowledge_interactions": [
    {
      "name": "chain",
      "type": "answer",
      "vars": ["endProduct", "input", "output", "operation", "operationType", "agent", "agentName", "timestamp"],
      "prefixes": {
        "rdf": "http://www.w3.org/1999/02/22-rdf-syntax-ns#",
        "rdfs": "http://www.w3.org/2000/01/rdf-schema#",
        "ssn": "http://www.w3.org/ns/ssn/",
        "ploutos": "https://www.tno.nl/agrifood/ontology/ploutos/common#",
        "s4agri": "https://saref.etsi.org/saref4agri/"
      },
      "pattern": "?endProduct rdf:type ploutos:Product . ?output ploutos:intermediateProductOf ?endProduct . ?operation rdf:type ?operationType . ?operationType rdfs:subClassOf ploutos:ProductOperation . ?operation ploutos:hasResponsibleAgent ?agent . ?agent s4agri:hasName ?agentName . ?operation ssn:hasInput ?input . ?operation ssn:hasOutput ?output . ?operation ploutos:hasEndDatetime ?timestamp ." ,
      "permitted": "*"
    },
    {
      "name": "harvesting-operation",
      "type": "answer",
      "vars": ["operation", "output", "parcel", "crop", "cropType", "cropName", "area", "location", "latitude", "longitude", "farmName", "farm", "farmer", "association", "associationName", "parcelAdminName", "parcelToponym", "parcelRegion", "purpose", "cultivatorName", "country", "countryLabel"],
      "prefixes": {
        "rdf": "http://www.w3.org/1999/02/22-rdf-syntax-ns#",
        "rdfs": "http://www.w3.org/2000/01/rdf-schema#",
        "ssn": "http://www.w3.org/ns/ssn/",
        "ploutos": "https://www.tno.nl/agrifood/ontology/ploutos/common#",
        "s4agri": "https://saref.etsi.org/saref4agri/",
        "wgs84": "http://www.w3.org/2003/01/geo/wgs84_pos#",
        "foaf": "http://xmlns.com/foaf/0.1/"
      },
      "pattern": "?operation rdf:type ploutos:HarvestingOperation . ?operation ssn:hasOutput ?output . ?operation ploutos:isOperatedOn ?parcel . ?parcel s4agri:contains ?crop . ?crop rdf:type ?cropType . ?cropType rdfs:label ?cropName . ?parcel ploutos:hasArea ?area . ?farm rdf:type ploutos:Farm . ?farm wgs84:location ?location . ?location wgs84:lat ?latitude . ?location wgs84:long ?longitude . ?farm s4agri:hasName ?farmName . ?farm s4agri:contains ?parcel . ?farmer s4agri:managesFarm ?farm . ?association rdf:type ploutos:FarmAssociation . ?farmer s4agri:isMemberOf ?association . ?association s4agri:hasName ?associationName . ?parcel ploutos:hasAdministrator ?parcelAdminName . ?parcel ploutos:hasToponym ?parcelToponym . ?parcel ploutos:inRegion ?parcelRegion . ?output ploutos:isMeantFor ?purpose . ?parcel ploutos:hasCultivator ?cultivatorName . ?farm ploutos:hasCountry ?country . ?country foaf:name ?countryLabel ." ,
      "permitted": "*"
    },
    {
      "name": "soil-mgmt-operations",
      "type": "answer",
      "vars": ["operation", "soilManagementOperationType", "parcel", "applied", "appliedUnit", "appliedValue", "area", "areaUnit", "areaValue", "start", "end", "agent", "material", "activeSubstance"],
      "prefixes": {
        "rdf": "http://www.w3.org/1999/02/22-rdf-syntax-ns#",
        "rdfs": "http://www.w3.org/2000/01/rdf-schema#",
        "ploutos": "https://www.tno.nl/agrifood/ontology/ploutos/common#",
        "om": "http://www.ontology-of-units-of-measure.org/resource/om-2/"
      },
      "pattern": "?operation rdf:type ?soilManagementOperationType . ?soilManagementOperationType rdfs:subClassOf ploutos:SoilManagementOperation . ?operation ploutos:isOperatedOn ?parcel . ?operation ploutos:hasAppliedAmount ?applied . ?applied om:hasUnit ?appliedUnit . ?applied om:hasNumericalValue ?appliedValue . ?operation ploutos:isAppliedPer ?area . ?area om:hasUnit ?areaUnit . ?area om:hasNumericalValue ?areaValue . ?operation ploutos:hasStartDatetime ?start . ?operation ploutos:hasEndDatetime ?end . ?operation ploutos:responsibleAgent ?agent . ?operation ploutos:usesMaterial ?material . ?material ploutos:hasActiveSubstance ?activeSubstance .",
      "permitted": ["https://alterra.org/peach-processing-kb"]
    }
  ]
}
